@1800
80 3E 00 00 20 00 FC FF 92 01 20 00 20 43 F6 C4
74 C4 74 C4 74 C4 4E C4 76 C4 B8 D6 1C CE 9A CD
9A CD 00 00 DC C4 7C C5 48 C5 3C 21 0A 00 00 20
34 C7 44 C6 36 C6 26 C8 74 C4 74 C4 74 C4 4E C4
76 C4 B8 D6 1C CE 9A CD 9A CD 00 00 00 00 00 00
00 00 00 00 00 00 00 00 00 00 00 00 EC 21 60 18
@C400
78 43 A5 3C 8F 93 02 00 02 20 2F 52 3A 3D 2F 83
8F 4E 00 00 1E 42 80 20 92 12 3A 18 B0 12 B0 CF
82 C6 3E C7 2C C6 4C C4 94 C5 F0 C5 07 0D 0A 1B
5B 37 6D 40 C0 C5 DC C5 04 18 4C C6 8C C8 C0 C5
F0 C5 06 0D 0A 1B 5B 30 6D 00 C0 C5 8A CB 92 C3
30 01 B2 D0 C1 07 40 05 18 42 04 18 08 11 38 D0
00 04 82 48 54 05 F2 D0 0C 00 0A 02 92 C3 40 05
A2 D2 6A 05 30 41 48 43 6A 3C 92 12 3E 18 84 12
94 C5 F0 C5 07 0D 0A 1B 5B 37 6D 40 C0 C5 DC C5
04 18 4C C6 8C C8 DC C5 23 00 78 C5 8C C8 F0 C5
0F 46 61 73 74 46 6F 72 74 68 20 56 34 2E 32 20
C0 C5 DC C5 40 FF F2 D4 46 C7 66 C8 F0 C5 0A 62
79 74 65 73 20 66 72 65 65 00 32 C6 3E C4 00 00
0C 41 43 43 45 50 54 00 30 40 DC C4 0A 4E 2E 4F
0A 5E 3B 40 0A 00 3C 40 20 00 3D 15 92 12 40 18
32 D0 F8 00 FB 3F 21 52 A2 C2 6C 05 B2 B0 10 00
40 05 F4 23 3A 17 92 B3 6C 05 FD 27 58 42 4C 05
48 9C 08 2C 48 9B 0C 24 78 92 F5 23 2E 9F F3 27
1E 83 F1 3F 0E 9A EF 2F CE 48 00 00 1E 53 EB 3F
B2 B0 10 00 40 05 FC 27 3E 8F 08 4C 21 3C 00 00
06 4B 45 59 30 40 48 C5 30 12 5A C5 58 43 A2 B3
6C 05 FD 27 C2 48 4E 05 30 41 2F 83 8F 4E 00 00
92 B3 6C 05 FD 27 1E 42 4C 05 B0 12 76 C4 30 4D
00 00 08 45 4D 49 54 00 30 40 7C C5 08 4E 3E 4F
A2 B3 6C 05 FD 27 C2 48 4E 05 30 4D 72 C5 08 45
43 48 4F 00 B2 40 A2 B3 80 C5 78 40 05 00 B0 12
4E C5 30 4D 00 00 0C 4E 4F 45 43 48 4F 00 B2 40
30 4D 80 C5 68 42 F3 3F 00 00 08 54 59 50 45 00
0D 12 3D 40 D6 C5 39 4F 2D 83 2F 83 8F 4E 00 00
7E 49 D2 3F D6 C5 5E 83 F7 23 52 24 2F 83 8F 4E
00 00 3E 4D 30 4D AF 4F FC FF 8F 4E FE FF 2F 82
2F 82 8F 4E 02 00 7E 4D 8F 4D 00 00 0D 5E 1D B3
0D 63 30 4D 82 43 BC 21 B2 4F BA 21 82 4E B8 21
3E 4F 30 4D 2F 82 8F 4E 02 00 3E 40 54 00 BF 40
3C 21 00 00 AF 4F FE FF 2F 83 56 3F 0E 93 3E 4F
21 20 2D 4D 30 4D 2F 83 8F 4E 00 00 3E 41 0D 12
3D 4E 30 4D 2F 83 8F 4E 00 00 3E 41 2E 4E 30 4D
00 00 0D 5B 54 48 45 4E 5D 00 30 4D 0A 4E 38 4F
3A 9F 39 4F 3E 4F E5 23 F8 99 00 00 E2 23 18 53
1A 83 FA 23 2D 53 30 4D 2F 53 3E 4F 1E 83 D9 23
3D 41 3E 4F 30 4D 80 C6 52 C6 0D 5B 45 4C 53 45
5D 00 0D 12 84 12 DC C5 01 00 32 C6 AC C6 F0 C5
05 0D 6B 6F 20 0A C0 C5 1A C6 04 C6 A2 C8 6C CB
30 C6 9E C6 E6 C5 06 5B 54 48 45 4E 5D 00 5C C6
C6 C6 78 C6 AC C6 E6 C5 06 5B 45 4C 53 45 5D 00
5C C6 D8 C6 78 C6 E4 C6 F0 C5 04 5B 49 46 5D 00
5C C6 AC C6 4A C7 32 C6 AC C6 8A C6 09 5B 49 46
5D 00 0E 93 3E 4F CD 27 30 4D EC C6 17 5B 55 4E
44 45 46 49 4E 45 44 5D 0D 12 84 12 A2 C8 0E C9
12 C7 1E 83 0E 7E 3D 41 2F 53 30 4D FC C6 13 5B
44 45 46 49 4E 45 44 5D 0D 12 84 12 A2 C8 0E C9
16 C7 3F 12 2F 83 8F 4E 00 00 3E 41 30 4D 2F 83
8F 4E 00 00 30 4D 3E 8F 3E E3 1E 53 30 4D 00 00
05 53 22 00 2F 83 8F 4E 00 00 3E 40 22 00 0B 43
0D 12 84 12 DC C5 F0 C5 26 CC B0 C8 6E C7 1A 53
1A B3 82 6A BE 21 84 3F A6 C5 05 2E 22 00 0D 12
84 12 54 C7 DC C5 C0 C5 26 CC 26 C8 00 00 04 3C
23 00 B2 40 B2 21 B2 21 30 4D 0B 4E 1C 4F 02 00
2E 4F 0A 43 35 40 20 00 0E 93 04 20 05 11 0E 4C
0C 43 09 43 0A 9B 01 28 0A 8B 09 69 08 68 15 83
07 30 0C 5C 0E 6E 0A 6A F5 2B 0A 8B 12 D3 F5 3F
35 40 36 C6 8F 4A 02 00 8F 49 00 00 0E 48 30 41
00 00 02 23 1B 42 B6 21 2C 4F 2F 83 B0 12 A2 C7
BF 4F 00 00 7A 90 0A 00 02 28 7A 50 07 00 7A 50
30 00 92 83 B2 21 18 42 B2 21 C8 4A 00 00 30 4D
E2 C7 04 23 53 00 0D 12 84 12 E4 C7 1E C8 2D 83
09 DE 09 93 E1 23 3D 41 30 4D 12 C8 04 23 3E 00
9F 42 B2 21 00 00 3E 40 B2 21 2E 8F 30 4D 00 00
08 48 4F 4C 44 00 4A 4E 3E 4F DB 3F 50 C7 08 53
49 47 4E 00 0E 93 3E 4F 7A 40 2D 00 D2 33 30 4D
00 00 04 55 2E 00 0C 43 2F 83 8F 4E 00 00 0E 43
1D 15 84 12 92 C7 DC C5 20 00 46 C8 16 C8 34 C7
54 C8 30 C8 C0 C5 26 C8 7A C7 02 2E 0E 93 EB 37
3E E3 1E 53 3C 43 E8 3F 00 00 08 57 4F 52 44 00
05 3C 2F 83 8F 4E 00 00 3E 40 20 00 3B 40 20 00
3C 40 B8 21 39 4C 38 4C 09 58 38 5C 2A 4C 08 99
18 2C 7E 98 FC 27 18 83 F8 90 27 00 02 00 01 20
0B 43 CA 4C 00 00 08 99 0C 24 7C 48 4E 9C 09 24
1A 53 7C 90 61 00 F5 2B 7C 90 7B 00 F2 2F 4C 8B
F0 3F 18 82 BA 21 82 48 BC 21 1E 42 BE 21 0A 8E
CE 4A 00 00 30 4D 00 00 08 46 49 4E 44 00 2F 83
0C 4E 3B 40 C4 21 3E 4B 0E 93 1E 24 58 4C 01 00
78 F0 1F 00 08 58 0E 58 2E 53 1E 4E FE FF 0E 93
F2 27 09 4E 78 49 48 11 68 9C F7 23 0A 4C FA 99
01 00 F3 23 1A 53 58 83 FA 23 19 B3 09 63 0C 49
6E 4E 1E F3 01 20 1E 83 8F 4C 00 00 30 4D 00 00
0E 3E 4E 55 4D 42 45 52 1B 42 B6 21 3C 4F 38 4F
29 4F 2F 82 82 4B C0 04 6A 4C 7A 80 3A 00 03 28
7A 80 07 00 12 28 7A 50 0A 00 0A 9B 22 C3 0D 2C
82 49 E0 04 82 48 E2 04 19 42 E4 04 18 42 E6 04
09 5A 08 63 1C 53 1E 83 E7 23 8F 4C 00 00 8F 48
02 00 8F 49 04 00 30 4D 3D 40 E6 CA 32 C0 00 02
3F 82 8F 4E 06 00 08 43 09 43 1B 42 B6 21 0C 4E
0E 43 1E 15 3D 40 1C CA 7E 4C 6A 4C 7A 80 2D 00
16 24 C8 2F 2B 43 7A 52 14 24 3B 52 6A 53 11 24
3B 40 10 00 5A 93 0D 24 6A 92 41 20 3E 90 03 00
3E 20 FC 9C 01 00 6C 4C 8F 4C 04 00 38 3C B1 43
02 00 1E 83 FC 9C 00 00 E0 23 AC 27 1E CA 2F 24
2D 83 6A 4C 7A 90 5F 00 BD 27 32 B0 00 02 27 20
32 D0 00 02 7A 80 2E 00 B5 27 6A 53 20 20 0A 4E
09 43 8F 49 02 00 5A 83 09 4A 09 5C 69 49 79 80
3A 00 03 28 79 80 07 00 0C 28 79 50 0A 00 09 9B
08 2C 8F 49 00 00 0E 4B 2C 15 B0 12 9A C7 2A 17
E8 3F 9F 4F 04 00 02 00 AF 4F 04 00 4A 93 1D 17
04 24 3F 50 06 00 0E F3 30 4D 2F 53 9F 4F 02 00
04 00 BF 4F 00 00 3E E3 09 20 3E E3 BF E3 02 00
BF E3 00 00 9F 53 02 00 8F 63 00 00 32 B0 00 06
33 26 30 4D 8E C7 03 5C 92 42 B8 21 BC 21 30 4D
0D 12 84 12 04 C6 A2 C8 30 C6 86 C6 0E C9 D0 CA
0A 4E 3E 4F 71 27 3D 40 C6 CA 1A E2 B4 21 A3 24
0E 12 3E 4F 30 41 E8 CA 3E 4F 3D 40 C6 CA 0F 20
3D 40 1E CD DE 53 00 00 68 4E 08 5E F8 40 3F 00
00 00 34 3C 00 00 0F 4C 49 54 45 52 41 4C 82 93
B4 21 0D 24 09 4E 1A 42 BE 21 A2 52 BE 21 BA 40
DC C5 00 00 8A 49 02 00 3E 4F 32 B0 00 02 32 C0
00 02 03 24 8A 4E 02 00 EE 3F 30 4D 2F 83 8F 4E
00 00 3E 40 7E 20 0E 8F 0E 11 0E 5E 0E 7E 3E E3
30 4D 2F 83 8F 4E 00 00 0E 43 B2 90 40 FF BE 21
F6 2F 30 4D 2C C8 0A 43 4F 55 4E 54 2F 83 7A 4E
8F 4E 00 00 0E 4A 3E F3 30 4D D0 C4 0A 41 4C 4C
4F 54 82 5E BE 21 3E 4F 30 4D B0 12 00 C4 3F 40
80 20 0E 43 31 40 E0 20 84 12 F0 C5 02 0D 0A 00
C0 C5 14 C6 C0 CA 3C CB F0 C5 0B 73 74 61 63 6B
20 65 6D 70 74 79 04 C4 52 CB F0 C5 09 46 52 41
4D 20 66 75 6C 6C 04 C4 32 C6 9A CB 7C CB 0D 41
42 4F 52 54 22 00 0D 12 84 12 54 C7 DC C5 04 C4
26 CC 26 C8 00 00 02 27 0D 12 84 12 A2 C8 0E C9
2C C6 F6 CB 26 C8 F0 CA 1E C7 07 5B 27 5D 0D 12
84 12 E8 CB DC C5 DC C5 26 CC 26 CC 26 C8 FA CB
03 5B 82 43 B4 21 30 4D 00 00 02 5D B2 43 B4 21
30 4D 06 CB 02 2C A2 53 BE 21 1A 42 BE 21 CA 4E
FE FF 8E 10 CA 4E FF FF 3E 4F 30 4D 00 00 11 50
4F 53 54 50 4F 4E 45 00 0D 12 84 12 A2 C8 0E C9
30 C6 F6 CB 4A CB 2C C6 66 CC DC C5 DC C5 26 CC
26 CC DC C5 26 CC 26 CC 26 C8 00 00 02 3A 30 12
B6 CC 92 B3 BE 21 A2 63 BE 21 0D 12 84 12 A2 C8
82 CC 3D 41 08 4E FE 5E FF FF 5A D3 5A 53 0A 58
19 42 C2 21 6E 4E 3E F0 1F 00 0E 5E 09 5E 3E 4F
82 48 D6 21 82 49 D8 21 82 4A DA 21 82 4F DC 21
82 4A BE 21 30 41 BA 40 0D 12 00 00 BA 40 84 12
02 00 A2 52 BE 21 AA 3F 6C CC 0E 3A 4E 4F 4E 41
4D 45 30 12 B6 CC 2F 83 8F 4E 00 00 1A 42 BE 21
1A B3 0A 63 0E 4A 39 40 12 02 08 49 D9 3F 82 9F
DC 21 0B 20 82 43 DC 21 18 42 D6 21 19 42 D8 21
A8 49 FE FF 89 48 00 00 30 4D 84 12 F0 C5 0F 73
74 61 63 6B 20 6D 69 73 6D 61 74 63 68 21 0E C4
10 CC 03 3B 82 93 B4 21 C7 26 0D 12 84 12 DC C5
26 C8 26 CC EE CC 12 CC 26 C8 00 00 12 49 4D 4D
45 44 49 41 54 45 18 42 D6 21 D8 D3 00 00 30 4D
66 CB 0C 43 52 45 41 54 45 00 B0 12 72 CC 2A 52
BA 40 86 12 FC FF 8A 4A FE FF 82 4A BE 21 C8 3F
3C CD 05 49 53 00 0D 12 82 93 B4 21 08 20 84 12
E8 CB 84 CD 3D 41 BE 4F 02 00 3E 4F 30 4D 84 12
FE CB DC C5 86 CD 26 CC 26 C8 00 00 CE CB 00 00
46 CE 00 00 74 CE 08 C9 E6 CB C2 CE 72 CD 00 00
40 C5 24 CC 50 CF 8A C8 00 00 3E CC 00 00 00 CF
30 D0 BA C5 62 C8 00 00 9A C8 00 00 00 00 CA CC
22 CD B6 CA 1A CC 60 C9 00 00 00 00 00 00 2E D5
94 D5 1C D4 00 00 CE D4 DC D5 E8 D5 00 00 94 D4
00 00 00 00 AA CE 7C D2 00 00 00 00 AC D6 00 00
90 D6 4E D4 AA D4 00 D5 00 00 3E D5 6E D3 00 00
00 00 00 00 00 00 00 00 00 00 04 D6 DA CD 52 CD
08 43 4F 44 45 00 B0 12 72 CC B2 40 9A CD C6 21
B2 40 DC CD C4 21 30 4D B2 40 9A CD C4 21 82 43
C6 21 30 4D 20 CE 0E 43 4F 44 45 4E 4E 4D 30 12
2A CE 41 3F 40 C8 0E 48 44 4E 43 4F 44 45 12 12
C2 21 B2 40 DC CD C2 21 B0 12 72 CC B2 41 C2 21
DC 3F 8E C5 0E 45 4E 44 43 4F 44 45 0D 12 84 12
EE CC 38 CE 26 C8 00 00 0A 43 4F 4C 4F 4E 1A 42
BE 21 BA 40 0D 12 00 00 BA 40 84 12 02 00 A2 52
BE 21 B2 43 B4 21 C8 3F 00 00 0A 4C 4F 32 48 49
1A 42 BE 21 BA 40 84 12 00 00 A2 53 BE 21 F1 3F
56 CE 0B 48 49 32 4C 4F A2 53 BE 21 1A 42 BE 21
8A 4A FE FF 82 43 B4 21 A8 3F 00 00 0E 52 53 54
5F 53 45 54 39 40 BE 21 3A 40 42 18 30 12 E4 C5
2B 42 BA 49 00 00 2A 53 1B 83 FB 23 30 41 DC CE
0E 52 53 54 5F 52 45 54 39 40 42 18 3A 40 BE 21
2C 49 B0 12 F0 CE 1A 42 C0 21 3B 40 20 00 09 4A
08 49 29 83 18 48 FE FF 0C 98 FC 2B 89 48 00 00
1B 83 F6 23 2A 4A 0A 93 F0 23 30 4D 3E CF 09 4E
3A 40 42 18 B0 12 F0 CE 3E 4F 3D 41 DD 3F 00 00
0C 4D 41 52 4B 45 52 00 12 12 BC 21 0D 12 84 12
A2 C8 0E C9 2C C6 80 CF 3E C7 4C C6 DC C5 85 12
46 C7 2C C6 7C CF F0 C5 00 00 0E C4 E0 CA 84 CF
82 CF 3E 4F 3D 41 B2 41 BC 21 B0 12 72 CC 2A 52
BA 40 85 12 FC FF BA 40 3C CF FE FF 28 83 39 40
BE 21 89 48 00 00 B0 12 F0 CE 82 4A BE 21 A2 3E
3D 41 92 12 3C 18 39 40 24 18 B2 49 DA C4 B2 49
7A C5 B2 49 46 C5 B2 49 20 C6 B2 49 B6 21 B2 49
00 20 82 43 B4 21 37 49 36 49 35 49 34 49 32 C0
00 0E 8E 11 4E 93 90 37 5E B3 8E 23 39 40 10 00
29 83 B9 43 80 FF FC 23 B9 40 50 D0 FE FF 29 83
B9 40 22 D0 FE FF 39 90 DC FF F9 23 39 40 0E 18
B2 49 E0 FF 3B 40 0A 00 3A 40 38 18 B0 12 F2 CE
73 3F 6E 42 F2 B2 01 02 05 20 7E 82 03 3C 4E C8
06 53 59 53 92 12 38 18 4E 93 02 24 5E B3 03 24
B0 12 B0 CF 7A C4 C2 4E 06 18 B2 40 04 A5 20 01
92 D3 04 01 B2 D0 10 00 00 01 B2 40 80 5A CC 01
3F 40 80 20 31 40 E0 20 B2 43 06 02 B2 40 FC FF
02 02 F2 D3 26 02 F2 43 22 02 B2 40 10 A5 A0 01
D2 43 A1 01 B2 40 00 A5 60 01 82 43 88 01 F2 D0
03 00 0B 02 F2 C3 82 01 F2 D0 0A 00 82 01 B2 40
E8 01 84 01 39 40 80 00 18 42 00 18 18 83 FE 23
19 83 FA 23 39 40 00 10 29 83 89 43 00 20 FC 23
19 42 5E 01 5E 42 06 18 C2 43 06 18 7E B3 01 20
0E 49 B0 12 B0 CF 7A C4 12 12 BC 21 84 12 AC C8
BC C9 2C C6 E8 D0 14 D1 0E C9 EC D0 3E 4F 03 20
B2 41 BC 21 30 41 3C 4E 3C 80 87 12 0B 24 1C 53
02 20 2E 4E 07 3C BE 90 3C CF 00 00 02 20 3E 50
0C 00 2E 83 21 53 30 41 92 83 BC 21 3E 40 28 00
0A 4E 3D 15 B0 12 D8 D0 15 20 3E 40 2B 00 B0 12
D8 D0 06 20 3E 40 2D 00 B0 12 D8 D0 92 83 BC 21
0E 12 1E 41 02 00 84 12 AC C8 BC C9 2C C6 F6 CB
52 D1 3E 51 3A 17 30 41 B0 12 18 D1 19 42 BE 21
89 4E 00 00 A2 53 BE 21 3E 40 29 00 92 53 BC 21
1A 42 BC 21 3D 15 84 12 AC C8 BC C9 2C C6 8A D1
82 D1 3E 90 10 00 E6 2B 51 2D 8C D1 A2 41 BC 21
E1 3F 03 20 B0 12 70 D1 31 20 7A 90 23 00 0B 20
B0 12 20 D1 3C 40 30 00 19 42 BE 21 A2 53 BE 21
89 4E 00 00 25 3C 7A 90 26 00 05 20 3C 40 10 02
B0 12 20 D1 F1 3F 7A 90 40 00 0A 20 3C 40 20 00
B0 12 6C D1 13 20 3E 40 2B 00 B0 12 70 D1 07 20
B0 12 58 D1 3E 90 03 00 02 20 A2 83 BE 21 3C D0
10 00 3A 40 00 40 0A 9C 82 63 BC 21 8E 10 0C 5E
3E 4F 30 4D 03 20 B0 12 70 D1 F9 23 7A 90 26 00
03 20 3C D0 82 00 D4 3F 3C D0 80 00 B0 12 58 D1
EE 23 30 40 F0 CA 0C 43 1B 42 BE 21 A2 53 BE 21
3A 40 20 00 19 42 BA 21 19 52 BC 21 7A 99 FE 27
5A 49 FF FF 19 82 BA 21 82 49 BC 21 7A 90 52 00
30 4D DC C5 2C 00 26 D2 92 D1 DC C5 20 00 30 D2
04 D2 64 D2 3D 41 2C DE 8B 4C 00 00 C9 3F 00 00
06 4D 4F 56 85 12 52 D2 00 40 70 D2 0A 4D 4F 56
2E 42 85 12 52 D2 40 40 00 00 06 41 44 44 85 12
52 D2 00 50 8A D2 0A 41 44 44 2E 42 85 12 52 D2
40 50 96 D2 08 41 44 44 43 00 85 12 52 D2 00 60
A4 D2 0C 41 44 44 43 2E 42 00 85 12 52 D2 40 60
00 00 08 53 55 42 43 00 85 12 52 D2 00 70 C2 D2
0C 53 55 42 43 2E 42 00 85 12 52 D2 40 70 D0 D2
06 53 55 42 85 12 52 D2 00 80 E0 D2 0A 53 55 42
2E 42 85 12 52 D2 40 80 88 CE 06 43 4D 50 85 12
52 D2 00 90 FA D2 0A 43 4D 50 2E 42 85 12 52 D2
40 90 00 00 06 42 49 54 85 12 52 D2 00 B0 14 D3
0A 42 49 54 2E 42 85 12 52 D2 40 B0 20 D3 06 42
49 43 85 12 52 D2 00 C0 2E D3 0A 42 49 43 2E 42
85 12 52 D2 40 C0 3A D3 06 42 49 53 85 12 52 D2
00 D0 48 D3 0A 42 49 53 2E 42 85 12 52 D2 40 D0
00 00 06 58 4F 52 85 12 52 D2 00 E0 62 D3 0A 58
4F 52 2E 42 85 12 52 D2 40 E0 B2 D2 06 41 4E 44
85 12 52 D2 00 F0 7C D3 0A 41 4E 44 2E 42 85 12
52 D2 40 F0 DC C5 20 00 26 D2 92 D1 9E D3 0A 4C
3C F0 70 00 8A 10 3A F0 0F 00 0C DA 5B 3F 00 00
06 52 52 43 85 12 94 D3 00 10 B0 D3 0A 52 52 43
2E 42 85 12 94 D3 40 10 EC D2 08 53 57 50 42 00
85 12 94 D3 80 10 BC D3 06 52 52 41 85 12 94 D3
00 11 D8 D3 0A 52 52 41 2E 42 85 12 94 D3 40 11
CA D3 06 53 58 54 85 12 94 D3 80 11 00 00 08 50
55 53 48 00 85 12 94 D3 00 12 FE D3 0C 50 55 53
48 2E 42 00 85 12 94 D3 40 12 06 D3 08 43 41 4C
4C 00 85 12 94 D3 80 12 1A 53 0E 4A 84 12 8C C8
F0 C5 0D 6F 75 74 20 6F 66 20 62 6F 75 6E 64 73
0E C4 F2 D3 06 53 3E 3D 86 12 00 38 44 D4 04 53
3C 00 86 12 00 34 0C D4 06 30 3E 3D 86 12 00 30
58 D4 04 30 3C 00 86 12 00 30 00 00 04 55 3C 00
86 12 00 2C 6C D4 06 55 3E 3D 86 12 00 28 62 D4
06 30 3C 3E 86 12 00 24 80 D4 04 30 3D 00 86 12
00 20 00 00 04 49 46 00 1A 42 BE 21 8A 4E 00 00
A2 53 BE 21 0E 4A 30 4D 00 00 08 54 48 45 4E 00
1A 42 BE 21 08 4E 3E 4F 09 48 29 53 0A 89 0A 11
3A 90 00 02 B2 2F 88 DA 00 00 30 4D 00 00 08 45
4C 53 45 00 1A 42 BE 21 BA 40 00 3C 00 00 A2 53
BE 21 2F 83 8F 4A 00 00 E3 3F 54 D3 0A 42 45 47
49 4E 2F 83 8F 4E 00 00 1E 42 BE 21 30 4D 76 D4
0A 55 4E 54 49 4C 3A 4F 08 4E 3E 4F 19 42 BE 21
2A 83 0A 89 0A 11 3A 90 00 FE 87 3B 3A F0 FF 03
08 DA 89 48 00 00 A2 53 BE 21 30 4D 88 D3 0A 41
47 41 49 4E 0A 4E 38 40 00 3C E7 3F 00 00 0A 57
48 49 4C 45 0D 12 84 12 98 D4 32 C7 26 C8 E4 D3
0C 52 45 50 45 41 54 00 0D 12 84 12 34 D5 B0 D4
26 C8 64 D5 3D 41 08 4E 3E 4F 2A 48 B2 92 BC 21
CB 2F 98 42 BE 21 00 00 30 4D EC D4 06 42 57 31
85 12 62 D5 00 00 7C D5 06 42 57 32 85 12 62 D5
00 00 88 D5 06 42 57 33 85 12 62 D5 00 00 A0 D5
3D 41 1A 42 BE 21 28 4E 8E 43 00 00 B2 92 BC 21
82 2B BA 4F 00 00 A2 53 BE 21 8E 4A 00 00 3E 4F
30 4D 00 00 06 46 57 31 85 12 9E D5 00 00 C4 D5
06 46 57 32 85 12 9E D5 00 00 D0 D5 06 46 57 33
85 12 9E D5 00 00 00 00 08 47 4F 54 4F 00 2F 83
8F 4E 00 00 3E 40 00 3C 0D 12 84 12 E8 CB E0 CA
26 C8 00 00 0A 3F 47 4F 54 4F 3E 90 00 30 F4 27
3E E0 00 04 3E B0 00 10 EF 27 3E E0 00 08 EC 3F
DC C5 2C 00 30 D2 AC C8 BC C9 2C C6 F6 CB DC C5
20 00 26 D2 04 D2 38 D6 0A 4E 3E 4F 1A 83 F4 32
29 4E 59 0E 0A 28 08 4C 59 0A 01 28 0C 8A 08 8A
38 90 10 00 E9 2E 5A 0E A8 3E 2A 92 E5 2E 8A 10
5A 06 A3 3E 50 D5 08 52 52 43 4D 00 85 12 20 D6
50 00 66 D6 08 52 52 41 4D 00 85 12 20 D6 50 01
74 D6 08 52 4C 41 4D 00 85 12 20 D6 50 02 82 D6
08 52 52 55 4D 00 85 12 20 D6 50 03 8A D4 0A 50
55 53 48 4D 85 12 20 D6 00 15 9E D6 08 50 4F 50
4D 00 85 12 20 D6 00 17
@FF80
FF FF FF FF FF FF FF FF FF FF FF FF FF FF FF FF
FF FF FF FF FF FF FF FF FF FF FF FF FF FF FF FF
77 00 10 00 12 00 14 00 16 00 00 00 22 D0 22 D0
22 D0 22 D0 22 D0 22 D0 22 D0 22 D0 22 D0 22 D0
22 D0 22 D0 22 D0 22 D0 22 D0 22 D0 22 D0 22 D0
22 D0 22 D0 22 D0 22 D0 22 D0 22 D0 22 D0 22 D0
F6 C4 22 D0 22 D0 22 D0 22 D0 22 D0 22 D0 22 D0
22 D0 22 D0 22 D0 22 D0 22 D0 22 D0 22 D0 50 D0
q
